Project 1: Wrangling, Exploration, Visualization
…
# retidying
untidy_profile %>% pivot_longer(1:22, names_to = "Region", values_to = "country") %>% 
    select(country, Region, everything()) %>% na.omit()

## # A tibble: 229 x 50
##    country Region `Surface area ( `Population in  `Population den
##    <chr>   <chr>  <chr>                       <dbl>            <dbl>
##  1 Afghan South 652864                      35530             54.4
##  2 Albania South 28748                        2930            107. 
##  3 Algeria North 2381741                     41318             17.3
##  4 Americ Polyn 199                            56            278. 
##  5 Andorra South 468                            77            164. 
##  6 Angola  Middl 1246700                     29784             23.9
##  7 Anguil Carib 91                             15            166. 
##  8 Antigu Carib 442                           102            232. 
##  9 Argent South 2780400                     44271             16.2
## 10 Armenia Weste 29743                        2930            103. 
## #  with 219 more rows, and 45 more variables: `Sex ratio (m per 100 f,
## #   2017)` <dbl>, `GDP: Gross domestic product (million current US$)` <dbl>,
## #   `GDP growth rate (annual %, const. 2005 prices)` <chr>, `GDP per capita
## #   (current US$)` <dbl>, `Economy: Agriculture (% of GVA)` <chr>, `Economy:
## #   Industry (% of GVA)` <dbl>, `Economy: Services and other activity (% of
## #   GVA)` <dbl>, `Employment: Agriculture (% of employed)` <chr>, `Employment:
## #   Industry (% of employed)` <chr>, `Employment: Services (% of
## #   employed)` <chr>, `Unemployment (% of labour force)` <chr>, `Labour force
## #   participation (female/male pop. %)` <chr>, `Agricultural production index
…
untidy_happy %>% pivot_longer(1:155, names_to = "Happiness.Rank", 
    values_to = "country") %>% select(country, Happiness.Rank, 
    everything()) %>% na.omit()

## # A tibble: 155 x 12
##    country Happiness.Rank Happiness.Score Whisker.high Whisker.low
##    <chr>   <chr>                    <dbl>        <dbl>       <dbl>
##  1 Norway  1                         7.54         7.59        7.48
##  2 Denmark 2                         7.52         7.58        7.46
##  3 Iceland 3                         7.50         7.62        7.39
##  4 Switze 4                         7.49         7.56        7.43
##  5 Finland 5                         7.47         7.53        7.41
##  6 Nether 6                         7.38         7.43        7.33
##  7 Canada  7                         7.32         7.38        7.25
##  8 New Ze 8                         7.31         7.38        7.25
##  9 Sweden  9                         7.28         7.34        7.22
## 10 Austra 10                        7.28         7.36        7.21
## #  with 145 more rows, and 7 more variables: Economy..GDP.per.Capita. <dbl>,
## #   Family <dbl>, Health..Life.Expectancy. <dbl>, Freedom <dbl>,
## #   Generosity <dbl>, Trust..Government.Corruption. <dbl>,
## #   Dystopia.Residual <dbl>
…
anti_join(profile, happy, by = c(country = "Country"))

## # A tibble: 80 x 54
##    country Region `Surface area ( `Population in  `Population den
##    <chr>   <chr>  <chr>                       <dbl>            <dbl>
##  1 Americ Polyn 199                            56            278. 
##  2 Andorra South 468                            77            164. 
##  3 Anguil Carib 91                             15            166. 
##  4 Antigu Carib 442                           102            232. 
##  5 Aruba   Carib 180                           105            585. 
##  6 Bahamas Carib 13940                         395             39.5
##  7 Barbad Carib 431                           286            664. 
##  8 Bermuda North 53                             61           1227  
##  9 Bonair Carib -99                            25             77.4
## 10 Britis Carib 151                            31            208  
## #  with 70 more rows, and 49 more variables: `Sex ratio (m per 100 f,
## #   2017)` <dbl>, `GDP: Gross domestic product (million current US$)` <dbl>,
## #   `GDP growth rate (annual %, const. 2005 prices)` <chr>, `GDP per capita
## #   (current US$)` <dbl>, `Economy: Agriculture (% of GVA)` <chr>, `Economy:
## #   Industry (% of GVA)` <dbl>, `Economy: Services and other activity (% of
## #   GVA)` <dbl>, `Employment: Agriculture (% of employed)` <chr>, `Employment:
## #   Industry (% of employed)` <chr>, `Employment: Services (% of
## #   employed)` <chr>, `Unemployment (% of labour force)` <chr>,
## #   `Laborforce_participation_women_%` <chr>,
…
Before joining could be performed, it was noticed that the same countries are listed under different names in both data sets. Country names that were found to differ were changed in the profile data set to match the country names of the happy data set. For example, Russia is listed as Russia in the happy data set, but it is listed as Russian Federation in the profile data set, so it was changed to match the happy data set. An anti-join was used to easily identify and find which countries were listed under different names in order to change them. Once this process was complete, an inner join was performed to join both data sets by the country variable and exclude any rows with no matches.

In the original profile data set there are 229 observations with 54 variables (columns), and in the happy data set, there are 155 observations with 12 variables (columns). All of the observations in both data sets are unique (229 and 155). After changing the country names so they matched eachother on both data sets, there are 6 countries in happy that are not in profile. Some of these are Taiwan Province of China, North Cyprus, and Kosovo. In profile, there are 80 countries not found in the happy data set. Some of these are Andorra, Bahamas, and Bermuda. Both data sets have 149 countries in common, so in the final joined data set there are 149 rows.

Wrangling

joined <- joined %>% mutate(Country.size = ifelse(`Population in thousands (2017)` > 
    mean(`Population in thousands (2017)`), "large", "small")) %>% 
    mutate(HappyResult = ifelse(Happiness.Score > 5, "Happy", 
        "Sad"))
joined %>% select(1, 4, 15, 66:67)

## # A tibble: 149 x 5
##    Country    Happiness.Score `Population in thousands Country.size HappyResult
##    <chr>                <dbl>                     <dbl> <chr>        <chr>      
##  1 Norway                7.54                      5305 small        Happy      
##  2 Denmark               7.52                      5734 small        Happy      
##  3 Iceland               7.50                       335 small        Happy      
##  4 Switzerla            7.49                      8476 small        Happy      
##  5 Finland               7.47                      5523 small        Happy      
##  6 Netherlan            7.38                     17036 small        Happy      
##  7 Canada                7.32                     36624 small        Happy      
##  8 New Zeala            7.31                      4706 small        Happy      
##  9 Sweden                7.28                      9911 small        Happy      
## 10 Australia             7.28                     24451 small        Happy      
## #  with 139 more rows
…
finaljoined %>% group_by(Region, Country.size) %>% na.omit() %>% 
    summarize(n = n(), max.happyscore = max(Happiness.Score), 
        min.happyscore = min(Happiness.Score), max.co2 = max(co2), 
        min.co2 = min(co2)) %>% arrange(desc(max.happyscore))

## # A tibble: 31 x 7
## # Groups:   Region [18]
##    Region       Country.size     n max.happyscore min.happyscore max.co2 min.co2
##    <chr>        <chr>        <int>          <dbl>          <dbl>   <dbl>   <dbl>
##  1 NorthernEur small            9           7.54           5.61    8204      74
##  2 WesternEuro small            5           7.49           6.86    2447       6
##  3 NorthernAme small            1           7.32           7.32   19276   19276
##  4 Oceania      small            2           7.31           7.28   15282     783
##  5 WesternAsia  small           15           7.21           3.46   25904       5
##  6 CentralAmer small            3           7.08           6.07     110      31
##  7 NorthernAme large            1           6.99           6.99   83887   83887
##  8 WesternEuro large            2           6.95           6.44    5694    5004
##  9 NorthernEur large            1           6.71           6.71    4482    4482
## 10 SouthAmerica large            1           6.64           6.64   10948   10948
## #  with 21 more rows

function1 <- function(x) {
    100 - x
}
finaljoined %>% summarize(seatsmen = function1(seatswomen))

## # A tibble: 149 x 1
##    seatsmen
##       <dbl>
##  1     60.4
##  2     62.6
##  3     52.4
##  4     67.5
##  5     58  
##  6     62  
##  7     73.7
##  8     65.8
##  9     56.4
## 10     71.3
## #  with 139 more rows

finaljoined %>% mutate(seatsmen = function1(seatswomen)) %>% 
    select(1:13, 16, 14:15)

## # A tibble: 149 x 16
##    Country Region Country.size HappyResult Happiness.Rank Happiness.Score   pop
##    <chr>   <chr>  <chr>        <chr>                <dbl>           <dbl> <dbl>
##  1 Norway  North small        Happy                    1            7.54  5305
##  2 Denmark North small        Happy                    2            7.52  5734
##  3 Iceland North small        Happy                    3            7.50   335
##  4 Switze Weste small        Happy                    4            7.49  8476
##  5 Finland North small        Happy                    5            7.47  5523
##  6 Nether Weste small        Happy                    6            7.38 17036
##  7 Canada  North small        Happy                    7            7.32 36624
##  8 New Ze Ocean small        Happy                    8            7.31  4706
##  9 Sweden  North small        Happy                    9            7.28  9911
## 10 Austra Ocean small        Happy                   10            7.28 24451
## #  with 139 more rows, and 9 more variables: GDP <dbl>, unemployement <dbl>,
## #   lifeex.f <dbl>, lifeex.m <dbl>, infmort <dbl>, physicians <dbl>,
## #   seatsmen <dbl>, seatswomen <dbl>, co2 <dbl>
…
